{"current_page":1,"data":[{"id":49,"sku_code":"BRO-X-350-20","sku_name":"BROWNTIRE HIGER 350\/90 R23.5","category":"Steer","unit_of_measure":"piece","unit_price":"0.00","cost_price":"0.00","status":"active","description":null,"brand":"BROWNTIRE","model":"HIGER","size":"350\/90 R23.5","tire_type":null,"load_index":null,"speed_rating":null,"current_stock":2,"min_stock_level":5,"max_stock_level":null,"reorder_point":10,"metadata":{"ply_rating":null,"pattern_type":null,"retreadable":true,"max_retread_cycles":3,"expected_mileage":0,"min_tread_depth":4,"preferred_warehouse":null,"lead_time_days":7,"budget_category":null},"created_at":"2026-01-13T10:07:04.000000Z","updated_at":"2026-01-13T15:47:37.000000Z","deleted_at":null,"default_supplier_id":null,"default_warehouse_id":null,"retreadable":false,"max_retread_cycles":0,"expected_mileage":null,"min_tread_depth":null,"tire_category":null,"preferred_warehouse_id":null,"lead_time_days":null,"budget_category":null,"max_age_months":72,"calculated_stock":2,"stock_by_warehouse":{"Main Warehouse":2}},{"id":38,"sku_code":"PIR-QUA-265","sku_name":"Pirelli quae 315\/80R22.5","category":null,"unit_of_measure":"piece","unit_price":"724.79","cost_price":"584.16","status":"active","description":null,"brand":"Pirelli","model":"quae","size":"315\/80R22.5","tire_type":null,"load_index":null,"speed_rating":null,"current_stock":0,"min_stock_level":10,"max_stock_level":null,"reorder_point":5,"metadata":null,"created_at":"2026-01-12T15:26:45.000000Z","updated_at":"2026-01-12T15:26:45.000000Z","deleted_at":null,"default_supplier_id":null,"default_warehouse_id":null,"retreadable":false,"max_retread_cycles":0,"expected_mileage":null,"min_tread_depth":null,"tire_category":null,"preferred_warehouse_id":null,"lead_time_days":null,"budget_category":null,"max_age_months":72,"calculated_stock":7,"stock_by_warehouse":{"Main Warehouse":7}},{"id":46,"sku_code":"MIC-SUN-687","sku_name":"Michelin sunt 11R22.5","category":null,"unit_of_measure":"piece","unit_price":"474.25","cost_price":"513.78","status":"active","description":null,"brand":"Michelin","model":"sunt","size":"11R22.5","tire_type":null,"load_index":null,"speed_rating":null,"current_stock":0,"min_stock_level":10,"max_stock_level":null,"reorder_point":5,"metadata":null,"created_at":"2026-01-12T15:26:45.000000Z","updated_at":"2026-01-12T15:26:45.000000Z","deleted_at":null,"default_supplier_id":null,"default_warehouse_id":null,"retreadable":false,"max_retread_cycles":0,"expected_mileage":null,"min_tread_depth":null,"tire_category":null,"preferred_warehouse_id":null,"lead_time_days":null,"budget_category":null,"max_age_months":72,"calculated_stock":5,"stock_by_warehouse":{"Main Warehouse":5}},{"id":48,"sku_code":"GOO-REM-504","sku_name":"Goodyear rem 295\/80R22.5","category":null,"unit_of_measure":"piece","unit_price":"307.93","cost_price":"499.89","status":"active","description":null,"brand":"AbundantBrand","model":"HighStockModel-Y","size":"295\/80R22.5","tire_type":null,"load_index":null,"speed_rating":null,"current_stock":0,"min_stock_level":5,"max_stock_level":null,"reorder_point":5,"metadata":null,"created_at":"2026-01-12T15:26:45.000000Z","updated_at":"2026-01-12T15:26:45.000000Z","deleted_at":null,"default_supplier_id":null,"default_warehouse_id":null,"retreadable":false,"max_retread_cycles":0,"expected_mileage":null,"min_tread_depth":null,"tire_category":null,"preferred_warehouse_id":null,"lead_time_days":null,"budget_category":null,"max_age_months":72,"calculated_stock":15,"stock_by_warehouse":{"Main Warehouse":15}},{"id":44,"sku_code":"CON-AUT-313","sku_name":"Continental autem 12R22.5","category":null,"unit_of_measure":"piece","unit_price":"505.43","cost_price":"223.55","status":"active","description":null,"brand":"Continental","model":"autem","size":"12R22.5","tire_type":null,"load_index":null,"speed_rating":null,"current_stock":0,"min_stock_level":10,"max_stock_level":null,"reorder_point":5,"metadata":null,"created_at":"2026-01-12T15:26:45.000000Z","updated_at":"2026-01-12T15:26:45.000000Z","deleted_at":null,"default_supplier_id":null,"default_warehouse_id":null,"retreadable":false,"max_retread_cycles":0,"expected_mileage":null,"min_tread_depth":null,"tire_category":null,"preferred_warehouse_id":null,"lead_time_days":null,"budget_category":null,"max_age_months":72,"calculated_stock":5,"stock_by_warehouse":{"Main Warehouse":5}},{"id":40,"sku_code":"GOO-UND-913","sku_name":"Goodyear unde 295\/80R22.5","category":null,"unit_of_measure":"piece","unit_price":"312.95","cost_price":"596.64","status":"active","description":null,"brand":"Goodyear","model":"unde","size":"295\/80R22.5","tire_type":null,"load_index":null,"speed_rating":null,"current_stock":0,"min_stock_level":10,"max_stock_level":null,"reorder_point":5,"metadata":null,"created_at":"2026-01-12T15:26:45.000000Z","updated_at":"2026-01-12T15:26:45.000000Z","deleted_at":null,"default_supplier_id":null,"default_warehouse_id":null,"retreadable":false,"max_retread_cycles":0,"expected_mileage":null,"min_tread_depth":null,"tire_category":null,"preferred_warehouse_id":null,"lead_time_days":null,"budget_category":null,"max_age_months":72,"calculated_stock":6,"stock_by_warehouse":{"Main Warehouse":6}},{"id":43,"sku_code":"BRI-EXE-676","sku_name":"Bridgestone exercitationem 315\/80R22.5","category":null,"unit_of_measure":"piece","unit_price":"483.83","cost_price":"372.78","status":"active","description":null,"brand":"Bridgestone","model":"exercitationem","size":"315\/80R22.5","tire_type":null,"load_index":null,"speed_rating":null,"current_stock":0,"min_stock_level":10,"max_stock_level":null,"reorder_point":5,"metadata":null,"created_at":"2026-01-12T15:26:45.000000Z","updated_at":"2026-01-12T15:26:45.000000Z","deleted_at":null,"default_supplier_id":null,"default_warehouse_id":null,"retreadable":false,"max_retread_cycles":0,"expected_mileage":null,"min_tread_depth":null,"tire_category":null,"preferred_warehouse_id":null,"lead_time_days":null,"budget_category":null,"max_age_months":72,"calculated_stock":8,"stock_by_warehouse":{"Main Warehouse":8}},{"id":45,"sku_code":"MIC-EXC-579","sku_name":"Michelin excepturi 315\/80R22.5","category":null,"unit_of_measure":"piece","unit_price":"558.37","cost_price":"342.33","status":"active","description":null,"brand":"Michelin","model":"excepturi","size":"315\/80R22.5","tire_type":null,"load_index":null,"speed_rating":null,"current_stock":0,"min_stock_level":10,"max_stock_level":null,"reorder_point":5,"metadata":null,"created_at":"2026-01-12T15:26:45.000000Z","updated_at":"2026-01-12T15:26:45.000000Z","deleted_at":null,"default_supplier_id":null,"default_warehouse_id":null,"retreadable":false,"max_retread_cycles":0,"expected_mileage":null,"min_tread_depth":null,"tire_category":null,"preferred_warehouse_id":null,"lead_time_days":null,"budget_category":null,"max_age_months":72,"calculated_stock":6,"stock_by_warehouse":{"Main Warehouse":6}},{"id":42,"sku_code":"CON-QUO-557","sku_name":"Continental quo 295\/80R22.5","category":null,"unit_of_measure":"piece","unit_price":"569.58","cost_price":"469.71","status":"active","description":null,"brand":"Continental","model":"quo","size":"295\/80R22.5","tire_type":null,"load_index":null,"speed_rating":null,"current_stock":0,"min_stock_level":10,"max_stock_level":null,"reorder_point":5,"metadata":null,"created_at":"2026-01-12T15:26:45.000000Z","updated_at":"2026-01-12T15:26:45.000000Z","deleted_at":null,"default_supplier_id":null,"default_warehouse_id":null,"retreadable":false,"max_retread_cycles":0,"expected_mileage":null,"min_tread_depth":null,"tire_category":null,"preferred_warehouse_id":null,"lead_time_days":null,"budget_category":null,"max_age_months":72,"calculated_stock":10,"stock_by_warehouse":{"Main Warehouse":10}},{"id":47,"sku_code":"GOO-ACC-306","sku_name":"Goodyear accusamus 12R22.5","category":null,"unit_of_measure":"piece","unit_price":"613.33","cost_price":"589.61","status":"active","description":null,"brand":"CriticalBrand","model":"LowStockModel-X","size":"295\/80R22.5","tire_type":null,"load_index":null,"speed_rating":null,"current_stock":0,"min_stock_level":10,"max_stock_level":null,"reorder_point":5,"metadata":null,"created_at":"2026-01-12T15:26:45.000000Z","updated_at":"2026-01-12T15:26:45.000000Z","deleted_at":null,"default_supplier_id":null,"default_warehouse_id":null,"retreadable":false,"max_retread_cycles":0,"expected_mileage":null,"min_tread_depth":null,"tire_category":null,"preferred_warehouse_id":null,"lead_time_days":null,"budget_category":null,"max_age_months":72,"calculated_stock":2,"stock_by_warehouse":{"Main Warehouse":2}},{"id":41,"sku_code":"BRI-DOL-461","sku_name":"Bridgestone dolorem 11R22.5","category":null,"unit_of_measure":"piece","unit_price":"699.58","cost_price":"371.77","status":"active","description":null,"brand":"Bridgestone","model":"dolorem","size":"11R22.5","tire_type":null,"load_index":null,"speed_rating":null,"current_stock":0,"min_stock_level":10,"max_stock_level":null,"reorder_point":5,"metadata":null,"created_at":"2026-01-12T15:26:45.000000Z","updated_at":"2026-01-12T15:26:45.000000Z","deleted_at":null,"default_supplier_id":null,"default_warehouse_id":null,"retreadable":false,"max_retread_cycles":0,"expected_mileage":null,"min_tread_depth":null,"tire_category":null,"preferred_warehouse_id":null,"lead_time_days":null,"budget_category":null,"max_age_months":72,"calculated_stock":5,"stock_by_warehouse":{"Main Warehouse":5}},{"id":37,"sku_code":"BRI-MAG-479","sku_name":"Bridgestone magnam 295\/80R22.5","category":null,"unit_of_measure":"piece","unit_price":"537.95","cost_price":"275.52","status":"active","description":null,"brand":"Bridgestone","model":"magnam","size":"295\/80R22.5","tire_type":null,"load_index":null,"speed_rating":null,"current_stock":0,"min_stock_level":10,"max_stock_level":null,"reorder_point":5,"metadata":null,"created_at":"2026-01-12T15:26:45.000000Z","updated_at":"2026-01-12T15:26:45.000000Z","deleted_at":null,"default_supplier_id":null,"default_warehouse_id":null,"retreadable":false,"max_retread_cycles":0,"expected_mileage":null,"min_tread_depth":null,"tire_category":null,"preferred_warehouse_id":null,"lead_time_days":null,"budget_category":null,"max_age_months":72,"calculated_stock":9,"stock_by_warehouse":{"Main Warehouse":9}},{"id":39,"sku_code":"MIC-EAR-806","sku_name":"Michelin earum 295\/80R22.5","category":null,"unit_of_measure":"piece","unit_price":"524.29","cost_price":"391.48","status":"active","description":null,"brand":"Michelin","model":"earum","size":"295\/80R22.5","tire_type":null,"load_index":null,"speed_rating":null,"current_stock":0,"min_stock_level":10,"max_stock_level":null,"reorder_point":5,"metadata":null,"created_at":"2026-01-12T15:26:45.000000Z","updated_at":"2026-01-12T15:26:45.000000Z","deleted_at":null,"default_supplier_id":null,"default_warehouse_id":null,"retreadable":false,"max_retread_cycles":0,"expected_mileage":null,"min_tread_depth":null,"tire_category":null,"preferred_warehouse_id":null,"lead_time_days":null,"budget_category":null,"max_age_months":72,"calculated_stock":5,"stock_by_warehouse":{"Main Warehouse":5}},{"id":36,"sku_code":"GOO-ITA-638","sku_name":"Goodyear itaque 11R22.5","category":null,"unit_of_measure":"piece","unit_price":"305.65","cost_price":"388.36","status":"active","description":null,"brand":"AbundantBrand","model":"HighStockModel-Y","size":"295\/80R22.5","tire_type":null,"load_index":null,"speed_rating":null,"current_stock":0,"min_stock_level":5,"max_stock_level":null,"reorder_point":5,"metadata":null,"created_at":"2026-01-12T15:24:43.000000Z","updated_at":"2026-01-12T15:24:43.000000Z","deleted_at":null,"default_supplier_id":null,"default_warehouse_id":null,"retreadable":false,"max_retread_cycles":0,"expected_mileage":null,"min_tread_depth":null,"tire_category":null,"preferred_warehouse_id":null,"lead_time_days":null,"budget_category":null,"max_age_months":72,"calculated_stock":15,"stock_by_warehouse":{"Main Warehouse":15}},{"id":35,"sku_code":"GOO-AUT-988","sku_name":"Goodyear aut 315\/80R22.5","category":null,"unit_of_measure":"piece","unit_price":"512.48","cost_price":"327.06","status":"active","description":null,"brand":"CriticalBrand","model":"LowStockModel-X","size":"295\/80R22.5","tire_type":null,"load_index":null,"speed_rating":null,"current_stock":1,"min_stock_level":10,"max_stock_level":null,"reorder_point":5,"metadata":null,"created_at":"2026-01-12T15:24:43.000000Z","updated_at":"2026-01-12T15:26:50.000000Z","deleted_at":null,"default_supplier_id":null,"default_warehouse_id":null,"retreadable":false,"max_retread_cycles":0,"expected_mileage":null,"min_tread_depth":null,"tire_category":null,"preferred_warehouse_id":null,"lead_time_days":null,"budget_category":null,"max_age_months":72,"calculated_stock":3,"stock_by_warehouse":{"Main Warehouse":3}},{"id":28,"sku_code":"MIC-QUI-609","sku_name":"Michelin qui 315\/80R22.5","category":null,"unit_of_measure":"piece","unit_price":"646.19","cost_price":"581.03","status":"active","description":null,"brand":"Michelin","model":"qui","size":"315\/80R22.5","tire_type":null,"load_index":null,"speed_rating":null,"current_stock":0,"min_stock_level":10,"max_stock_level":null,"reorder_point":5,"metadata":null,"created_at":"2026-01-12T15:24:42.000000Z","updated_at":"2026-01-12T15:24:42.000000Z","deleted_at":null,"default_supplier_id":null,"default_warehouse_id":null,"retreadable":false,"max_retread_cycles":0,"expected_mileage":null,"min_tread_depth":null,"tire_category":null,"preferred_warehouse_id":null,"lead_time_days":null,"budget_category":null,"max_age_months":72,"calculated_stock":7,"stock_by_warehouse":{"Main Warehouse":7}},{"id":29,"sku_code":"PIR-IPS-765","sku_name":"Pirelli ipsum 295\/80R22.5","category":null,"unit_of_measure":"piece","unit_price":"769.69","cost_price":"572.49","status":"active","description":null,"brand":"Pirelli","model":"ipsum","size":"295\/80R22.5","tire_type":null,"load_index":null,"speed_rating":null,"current_stock":0,"min_stock_level":10,"max_stock_level":null,"reorder_point":5,"metadata":null,"created_at":"2026-01-12T15:24:42.000000Z","updated_at":"2026-01-12T15:24:42.000000Z","deleted_at":null,"default_supplier_id":null,"default_warehouse_id":null,"retreadable":false,"max_retread_cycles":0,"expected_mileage":null,"min_tread_depth":null,"tire_category":null,"preferred_warehouse_id":null,"lead_time_days":null,"budget_category":null,"max_age_months":72,"calculated_stock":6,"stock_by_warehouse":{"Main Warehouse":6}},{"id":27,"sku_code":"BRI-OFF-206","sku_name":"Bridgestone officiis 11R22.5","category":null,"unit_of_measure":"piece","unit_price":"425.35","cost_price":"314.14","status":"active","description":null,"brand":"Bridgestone","model":"officiis","size":"11R22.5","tire_type":null,"load_index":null,"speed_rating":null,"current_stock":0,"min_stock_level":10,"max_stock_level":null,"reorder_point":5,"metadata":null,"created_at":"2026-01-12T15:24:42.000000Z","updated_at":"2026-01-12T15:24:42.000000Z","deleted_at":null,"default_supplier_id":null,"default_warehouse_id":null,"retreadable":false,"max_retread_cycles":0,"expected_mileage":null,"min_tread_depth":null,"tire_category":null,"preferred_warehouse_id":null,"lead_time_days":null,"budget_category":null,"max_age_months":72,"calculated_stock":5,"stock_by_warehouse":{"Main Warehouse":5}},{"id":31,"sku_code":"PIR-AUT-685","sku_name":"Pirelli aut 11R22.5","category":null,"unit_of_measure":"piece","unit_price":"476.73","cost_price":"571.52","status":"active","description":null,"brand":"Pirelli","model":"aut","size":"11R22.5","tire_type":null,"load_index":null,"speed_rating":null,"current_stock":0,"min_stock_level":10,"max_stock_level":null,"reorder_point":5,"metadata":null,"created_at":"2026-01-12T15:24:42.000000Z","updated_at":"2026-01-12T15:24:42.000000Z","deleted_at":null,"default_supplier_id":null,"default_warehouse_id":null,"retreadable":false,"max_retread_cycles":0,"expected_mileage":null,"min_tread_depth":null,"tire_category":null,"preferred_warehouse_id":null,"lead_time_days":null,"budget_category":null,"max_age_months":72,"calculated_stock":5,"stock_by_warehouse":{"Main Warehouse":5}},{"id":25,"sku_code":"BRI-SIN-895","sku_name":"Bridgestone sint 11R22.5","category":null,"unit_of_measure":"piece","unit_price":"667.88","cost_price":"222.83","status":"active","description":null,"brand":"Bridgestone","model":"sint","size":"11R22.5","tire_type":null,"load_index":null,"speed_rating":null,"current_stock":0,"min_stock_level":10,"max_stock_level":null,"reorder_point":5,"metadata":null,"created_at":"2026-01-12T15:24:42.000000Z","updated_at":"2026-01-12T15:24:42.000000Z","deleted_at":null,"default_supplier_id":null,"default_warehouse_id":null,"retreadable":false,"max_retread_cycles":0,"expected_mileage":null,"min_tread_depth":null,"tire_category":null,"preferred_warehouse_id":null,"lead_time_days":null,"budget_category":null,"max_age_months":72,"calculated_stock":10,"stock_by_warehouse":{"Main Warehouse":10}}],"first_page_url":"http:\/\/194.146.13.23\/api\/sku\/list?page=1","from":1,"last_page":3,"last_page_url":"http:\/\/194.146.13.23\/api\/sku\/list?page=3","links":[{"url":null,"label":"&laquo; Previous","page":null,"active":false},{"url":"http:\/\/194.146.13.23\/api\/sku\/list?page=1","label":"1","page":1,"active":true},{"url":"http:\/\/194.146.13.23\/api\/sku\/list?page=2","label":"2","page":2,"active":false},{"url":"http:\/\/194.146.13.23\/api\/sku\/list?page=3","label":"3","page":3,"active":false},{"url":"http:\/\/194.146.13.23\/api\/sku\/list?page=2","label":"Next &raquo;","page":2,"active":false}],"next_page_url":"http:\/\/194.146.13.23\/api\/sku\/list?page=2","path":"http:\/\/194.146.13.23\/api\/sku\/list","per_page":20,"prev_page_url":null,"to":20,"total":49}